SetMAC
00183e03e4a2
SetIP
81106eef

Packet
0018 3e03 e4a2 7079  b309 5ef3 0800 4500
004c 0a54 4000 3311  19f6 5863 daf4 8110
6eef e8c5 007b 0038  1acb e300 0000 0000
0000 0000 0000 0000  0000 0000 0000 0000
0000 0000 0000 0000  0000 0000 0000 0000
0000 e90a 165d f5b1  0000 8bf2 70cd
FinPacket

Empty
Sleep
