SetMAC
82abcdef0009
SetIP
ac100606
DoBOOTP
1
Empty

Packet
82ab cdef 0009 ac22  0b4f fa85 0800 4500
0054 fc96 4000 4001  d989 ac10 0661 ac10
0607 0800 400f 42dc  0003 577d fa5b 0000
0000 5e65 0600 0000  0000 1011 1213 1415
1617 1819 1a1b 1c1d  1e1f 2021 2223 2425
2627 2829 2a2b 2c2d  2e2f 3031 3233 3435
3637 d905 b2f7
FinPacket

Empty
Sleep

Packet
82ab cdef 0009 ac22  0b4f fa85 0800 4500
0054 fc96 4000 4001  d98a ac10 0661 ac10
0606 0800 400f 42dc  0003 577d fa5b 0000
0000 5e65 0600 0000  0000 1011 1213 1415
1617 1819 1a1b 1c1d  1e1f 2021 2223 2425
2627 2829 2a2b 2c2d  2e2f 3031 3233 3435
3637 6cb5 7db4
FinPacket

Empty

# Issue ARP request in order to generate BOOTP request.
Packet
82ab cdef 0009 ac22  0b4f fa85 0806 0001
0800 0604 0001 ac22  0b4f fa85 ac10 0661
0000 0000 0000 ac10  0601 0000 0000 0000
0000 0000 0000 0000  0000 0000 7920 997e
FinPacket

Empty
Sleep
Sleep
Sleep
Sleep

Packet
82ab cdef 0009 0022  19c8 eeee 0800 4510
0148 0000 0000 8011  aba1 c0a8 0b0b c0a8
0198 0043 0044 0134  a770 0201 0600 9d89
df06 0000 0000 0000  0000 ac10 0607 c0a8
010b 0000 0000 82ab  cdef 0009 0000 0000
0000 0000 0000 0000  0000 0000 0000 0000
0000 0000 0000 0000  0000 0000 0000 0000
0000 0000 0000 0000  0000 0000 0000 0000
0000 0000 0000 0000  0000 0000 0000 0000
0000 0000 0000 0000  0000 0000 0000 0000
0000 0000 0000 0000  0000 0000 0000 0000
0000 0000 0000 0000  0000 0000 0000 0000
0000 0000 0000 0000  0000 0000 0000 0000
0000 0000 0000 0000  0000 0000 0000 0000
0000 0000 0000 0000  0000 0000 0000 0000
0000 0000 0000 0000  0000 0000 0000 0000
0000 0000 0000 0000  0000 0000 0000 0000
0000 0000 0000 6382  5363 0104 ffff ff00
0604 c0a8 0201 ff00  0000 0000 0000 0000
0000 0000 0000 0000  0000 0000 0000 0000
0000 0000 0000 0000  0000 0000 0000 0000
0000 0000 0000 7d7f  7192
FinPacket

Empty
Sleep

Packet
82ab cdef 0009 ac22  0b4f fa85 0800 4500
0054 fc96 4000 4001  d989 ac10 0661 ac10
0607 0800 400f 42dc  0003 577d fa5b 0000
0000 5e65 0600 0000  0000 1011 1213 1415
1617 1819 1a1b 1c1d  1e1f 2021 2223 2425
2627 2829 2a2b 2c2d  2e2f 3031 3233 3435
3637 d905 b2f7
FinPacket

Empty
Sleep

Packet
82ab cdef 0009 ac22  0b4f fa85 0800 4500
0054 fc96 4000 4001  d98a ac10 0661 ac10
0606 0800 4013 42da  0001 577d fa5b 0000
0000 5e65 0600 0000  0000 1011 1213 1415
1617 1819 1a1b 1c1d  1e1f 2021 2223 2425
2627 2829 2a2b 2c2d  2e2f 3031 3233 3435
3637 f096 2dec
FinPacket

Empty
Sleep

Packet
82ab cdef 0009 ac22  0b4f fa85 0800 4500
0054 fc96 4000 4001  d989 ac10 0661 ac10
0607 0800 400f 42dc  0003 577d fa5b 0000
0000 5e65 0600 0000  0000 1011 1213 1415
1617 1819 1a1b 1c1d  1e1f 2021 2223 2425
2627 2829 2a2b 2c2d  2e2f 3031 3233 3435
3637 d905 b2f7
FinPacket

Empty
Sleep

Packet
82ab cdef 0009 ac22  0b4f fa85 0800 4500
0054 fc96 4000 4001  d988 ac10 0661 ac10
0608 0800 4013 42da  0001 577d fa5b 0000
0000 5e65 0600 0000  0000 1011 1213 1415
1617 1819 1a1b 1c1d  1e1f 2021 2223 2425
2627 2829 2a2b 2c2d  2e2f 3031 3233 3435
3637 cd48 2fb0
FinPacket

TimeoutTicks
128

# Issue ARP request in order to generate BOOTP request.
Packet
82ab cdef 0009 ac22  0b4f fa85 0806 0001
0800 0604 0001 ac22  0b4f fa85 ac10 0661
0000 0000 0000 ac10  0601 0000 0000 0000
0000 0000 0000 0000  0000 0000 7920 997e
FinPacket

Empty
Sleep
Sleep
Sleep

Packet
ffff ffff ffff 0022  19c8 eeee 0800 4510
0148 0000 0000 8011  aba1 c0a8 0b0b c0a8
0198 0043 0044 0134  65a1 0201 0600 5f54
5f0a 0000 0000 0000  0000 ac10 0608 c0a8
010b 0000 0000 82ab  cdef 0009 0000 0000
0000 0000 0000 0000  0000 0000 0000 0000
0000 0000 0000 0000  0000 0000 0000 0000
0000 0000 0000 0000  0000 0000 0000 0000
0000 0000 0000 0000  0000 0000 0000 0000
0000 0000 0000 0000  0000 0000 0000 0000
0000 0000 0000 0000  0000 0000 0000 0000
0000 0000 0000 0000  0000 0000 0000 0000
0000 0000 0000 0000  0000 0000 0000 0000
0000 0000 0000 0000  0000 0000 0000 0000
0000 0000 0000 0000  0000 0000 0000 0000
0000 0000 0000 0000  0000 0000 0000 0000
0000 0000 0000 0000  0000 0000 0000 0000
0000 0000 0000 6382  5363 0104 ffff ff00
0604 c0a8 0201 ff00  0000 0000 0000 0000
0000 0000 0000 0000  0000 0000 0000 0000
0000 0000 0000 0000  0000 0000 0000 0000
0000 0000 0000 1c7e  5e95
FinPacket

Empty
Sleep

Packet
82ab cdef 0009 ac22  0b4f fa85 0800 4500
0054 fc96 4000 4001  d989 ac10 0661 ac10
0607 0800 400f 42dc  0003 577d fa5b 0000
0000 5e65 0600 0000  0000 1011 1213 1415
1617 1819 1a1b 1c1d  1e1f 2021 2223 2425
2627 2829 2a2b 2c2d  2e2f 3031 3233 3435
3637 d905 b2f7
FinPacket

Empty
Sleep

Packet
82ab cdef 0009 ac22  0b4f fa85 0800 4500
0054 fc96 4000 4001  d988 ac10 0661 ac10
0608 0800 4013 42da  0001 577d fa5b 0000
0000 5e65 0600 0000  0000 1011 1213 1415
1617 1819 1a1b 1c1d  1e1f 2021 2223 2425
2627 2829 2a2b 2c2d  2e2f 3031 3233 3435
3637 cd48 2fb0
FinPacket

Empty
Sleep

Packet
82ab cdef 0009 ac22  0b4f fa85 0800 4500
0054 fc96 4000 4001  d98a ac10 0661 ac10
0606 0800 4013 42da  0001 577d fa5b 0000
0000 5e65 0600 0000  0000 1011 1213 1415
1617 1819 1a1b 1c1d  1e1f 2021 2223 2425
2627 2829 2a2b 2c2d  2e2f 3031 3233 3435
3637 f096 2dec
FinPacket

Empty
Sleep

