SetMAC
82abcdef0009
SetIP
ac100606
MaxPayload
100
MakeData
10000
Empty

Packet
82ab cdef 0009 ac23  0b4f fa85 0800 4500
002c 0123 4000 ff06  161f ac10 0663 ac10
0606 9135 0001 3456  ffff 0000 0000 6002
01e0 6c30 0000 0204  05b4 0000 878e 4a24

FinPacket
Empty
Sleep

Packet
82ab cdef 0009 ac23  0b4f fa85 0800 4500
002c 0123 4000 ff06  161f ac10 0663 ac10
0606 9135 0001 3457  0000 0010 0004 6010
01e0 6c0d 0000 0204  05b4 0000 8e41 7454

FinPacket
Empty
Sleep
Sleep
Sleep
Sleep
Sleep
Sleep
Sleep

Packet
82ab cdef 0009 ac23  0b4f fa85 0800 4500
002c 0123 4000 ff06  161f ac10 0663 ac10
0606 9135 0001 3457  0000 0010 0104 6010
01e0 6b0d 0000 0204  05b4 0000 66cb c018

FinPacket
Empty
Sleep
Sleep
Sleep

Packet
82ab cdef 0009 ac23  0b4f fa85 0800 4500
002c 0123 4000 ff06  161f ac10 0663 ac10
0606 9135 0001 3457  0000 0010 0284 6010
01e0 698d 0000 0204  05b4 0000 5d5f 2f1d

FinPacket
Empty
Sleep
Sleep
Sleep

Packet
82ab cdef 0009 ac23  0b4f fa85 0800 4500
002c 0123 4000 ff06  161f ac10 0663 ac10
0606 9135 0001 3457  0000 0010 0284 6010
01e0 698d 0000 0204  05b4 0000 5d5f 2f1d

FinPacket
Empty
Sleep
Sleep
Sleep

Packet
82ab cdef 0009 ac23  0b4f fa85 0800 4500
002c 0123 4000 ff06  161f ac10 0663 ac10
0606 9135 0001 3457  0000 0010 0284 6010
01e0 698d 0000 0204  05b4 0000 5d5f 2f1d

FinPacket
Empty
Sleep
Sleep
Sleep

Packet
82ab cdef 0009 ac23  0b4f fa85 0800 4500
002c 0123 4000 ff06  161f ac10 0663 ac10
0606 9135 0001 3457  0000 0010 0284 6010
01e0 698d 0000 0204  05b4 0000 5d5f 2f1d

FinPacket
Empty
Sleep
Sleep
Sleep

Packet
82ab cdef 0009 ac23  0b4f fa85 0800 4500
002c 0123 4000 ff06  161f ac10 0663 ac10
0606 9135 0001 3457  0000 0010 0294 6010
01e0 697d 0000 0204  05b4 0000 8803 bbcf

FinPacket
Empty
Sleep
Sleep
Sleep

Packet
82ab cdef 0009 ac23  0b4f fa85 0800 4500
002c 0123 4000 ff06  161f ac10 0663 ac10
0606 9135 0001 3457  0000 0010 0294 6010
01e0 697d 0000 0204  05b4 0000 8803 bbcf

FinPacket
Empty
Sleep
Sleep
Sleep

Packet
82ab cdef 0009 ac23  0b4f fa85 0800 4500
002c 0123 4000 ff06  161f ac10 0663 ac10
0606 9135 0001 3457  0000 0010 0294 6010
01e0 697d 0000 0204  05b4 0000 8803 bbcf

FinPacket
Empty
Sleep
Sleep
Sleep

Packet
82ab cdef 0009 ac23  0b4f fa85 0800 4500
002c 0123 4000 ff06  161f ac10 0663 ac10
0606 9135 0001 3457  0000 0010 0294 6010
01e0 697d 0000 0204  05b4 0000 8803 bbcf

FinPacket
Empty
Sleep
Sleep
Sleep

Packet
82ab cdef 0009 ac23  0b4f fa85 0800 4500
002c 0123 4000 ff06  161f ac10 0663 ac10
0606 9135 0001 3457  0000 0010 0294 6010
01e0 697d 0000 0204  05b4 0000 8803 bbcf

FinPacket
Empty
Sleep
Sleep
Sleep

Packet
82ab cdef 0009 ac23  0b4f fa85 0800 4500
002c 0123 4000 ff06  161f ac10 0663 ac10
0606 9135 0001 3457  0000 0010 0294 6010
01e0 697d 0000 0204  05b4 0000 8803 bbcf

FinPacket
Empty
Sleep
Sleep
Sleep

Packet
82ab cdef 0009 ac23  0b4f fa85 0800 4500
002c 0123 4000 ff06  161f ac10 0663 ac10
0606 9135 0001 3457  0000 0010 0294 6010
01e0 697d 0000 0204  05b4 0000 8803 bbcf

FinPacket
Empty
Sleep
Sleep
Sleep

Packet
82ab cdef 0009 ac23  0b4f fa85 0800 4500
002c 0123 4000 ff06  161f ac10 0663 ac10
0606 9135 0001 3457  0000 0010 0294 6010
01e0 697d 0000 0204  05b4 0000 8803 bbcf

FinPacket
Empty
Sleep
Sleep
Sleep

Packet
82ab cdef 0009 ac23  0b4f fa85 0800 4500
002c 0123 4000 ff06  161f ac10 0663 ac10
0606 9135 0001 3457  0000 0010 0294 6010
01e0 697d 0000 0204  05b4 0000 8803 bbcf

FinPacket
Empty
Sleep
Sleep
Sleep
Sleep
Sleep
Sleep
Sleep
Sleep
Sleep
